Get Products from an XML version of the Swiss Register of Plant Protection Products — srppp_xml_get_products • srppp
…
    Value

A tibble with a row for each product section
in the XML file. An attribute 'duplicated_wNbrs' is
also returned, containing duplicated W-Numbers, if applicable,
or NULL.

    Examples

# Get current list of products
srppp_xml_get_products()
#> # A tibble: 1,694 × 7
#>    wNbr   name          pNbr exhaustionDeadline soldoutDeadline isSalePermission
#>    <chr>  <chr>        <int> <chr>              <chr>           <chr>           
#>  1 1454   "Misto 12"    1865 ""                 ""              false           
#>  2 1454-2 "Parafol"     1865 ""                 ""              true            
#>  3 1526   "Zofal D"     1994 ""                 ""              false           
#>  4 1526-1 "Capito Win…  1994 ""                 ""              true            
#>  5 1526-2 "Biorga Con…  1994 ""                 ""              true            
#>  6 1529   "Oléoc "      2028 ""                 ""              false           
#>  7 1698   "Asulox"      2092 ""                 ""              false           
#>  8 18     "Thiovit Je…    38 ""                 ""              false           
#>  9 18-1   "Sufralo"       38 ""                 ""              true            
#> 10 18-2   "Capito Bio…    38 ""                 ""              true            
#> # ℹ 1,684 more rows
#> # ℹ 1 more variable: terminationReason <chr>
…
